Final_XGBoost_MLP-NNET_Group4_Ashbin-Comfort
…
merged_clean

# A tibble: 7,392 × 16
   yield_mg_ha prcp_mm_day srad_w_m_2 swe_kg_m_2 tmax_deg_c tmin_deg_c vp_pa
         <dbl>       <dbl>      <dbl>      <dbl>      <dbl>      <dbl> <dbl>
 1       13.8         3.69       305.       6.10       15.4       3.96 1007.
 2        9.62        3.69       305.       6.10       15.4       3.96 1007.
 3       12.6         3.69       305.       6.10       15.4       3.96 1007.
 4       10.2         3.69       305.       6.10       15.4       3.96 1007.
 5        7.77        3.69       305.       6.10       15.4       3.96 1007.
 6       11.8         3.69       305.       6.10       15.4       3.96 1007.
 7        9.68        3.69       305.       6.10       15.4       3.96 1007.
 8       12.1         3.69       305.       6.10       15.4       3.96 1007.
 9       10.5         3.69       305.       6.10       15.4       3.96 1007.
10        8.68        3.69       305.       6.10       15.4       3.96 1007.
# ℹ 7,382 more rows
# ℹ 9 more variables: soilpH <dbl>, om_pct <dbl>, soilk_ppm <dbl>,
#   soilp_ppm <dbl>, pHom <dbl>, `soilpH^2` <dbl>, `om_pct^2` <dbl>,
#   `p+k` <dbl>, norm_pk <dbl>
…
# Review split
ml_split

<Training/Testing/Total>
<5172/2220/7392>

a. Data split

train_data = training(ml_split)  # 70% of data
train_data

# A tibble: 5,172 × 16
   yield_mg_ha prcp_mm_day srad_w_m_2 swe_kg_m_2 tmax_deg_c tmin_deg_c vp_pa
         <dbl>       <dbl>      <dbl>      <dbl>      <dbl>      <dbl> <dbl>
 1        2.56        3.69       305.       6.10       15.4       3.96 1007.
 2        4.01        3.69       305.       6.10       15.4       3.96 1007.
 3        5.95        3.69       305.       6.10       15.4       3.96 1007.
 4        2.82        3.13       305.       5.66       15.0       3.57  982.
 5        2.96        3.13       305.       5.66       15.0       3.57  982.
 6        6.09        3.13       305.       5.66       15.0       3.57  982.
 7        4.99        3.13       305.       5.66       15.0       3.57  982.
 8        2.37        3.13       305.       5.66       15.0       3.57  982.
 9        5.27        3.13       305.       5.66       15.0       3.57  982.
10        5.75        3.13       305.       5.66       15.0       3.57  982.
# ℹ 5,162 more rows
# ℹ 9 more variables: soilpH <dbl>, om_pct <dbl>, soilk_ppm <dbl>,
#   soilp_ppm <dbl>, pHom <dbl>, `soilpH^2` <dbl>, `om_pct^2` <dbl>,
#   `p+k` <dbl>, norm_pk <dbl>

write_csv(train_data, "../Shiny_APP/train_data.csv")

test_data = testing(ml_split)  # 30% of data
test_data 

# A tibble: 2,220 × 16
   yield_mg_ha prcp_mm_day srad_w_m_2 swe_kg_m_2 tmax_deg_c tmin_deg_c vp_pa
         <dbl>       <dbl>      <dbl>      <dbl>      <dbl>      <dbl> <dbl>
 1        9.62        3.69       305.       6.10       15.4       3.96 1007.
 2        9.68        3.69       305.       6.10       15.4       3.96 1007.
 3       11.3         3.69       305.       6.10       15.4       3.96 1007.
 4       10.2         3.69       305.       6.10       15.4       3.96 1007.
 5        8.13        3.69       305.       6.10       15.4       3.96 1007.
 6       14.1         3.69       305.       6.10       15.4       3.96 1007.
 7        9.90        3.69       305.       6.10       15.4       3.96 1007.
 8        9.52        3.69       305.       6.10       15.4       3.96 1007.
 9       12.0         3.69       305.       6.10       15.4       3.96 1007.
10       12.9         3.69       305.       6.10       15.4       3.96 1007.
# ℹ 2,210 more rows
# ℹ 9 more variables: soilpH <dbl>, om_pct <dbl>, soilk_ppm <dbl>,
#   soilp_ppm <dbl>, pHom <dbl>, `soilpH^2` <dbl>, `om_pct^2` <dbl>,
#   `p+k` <dbl>, norm_pk <dbl>
…
Warning: `grid_latin_hypercube()` was deprecated in dials 1.3.0.
ℹ Please use `grid_space_filling()` instead.

xgb_grid

# A tibble: 30 × 7
   trees tree_depth min_n    learn_rate loss_reduction sample_size  mtry
   <int>      <int> <int>         <dbl>          <dbl>       <dbl> <int>
 1  1527         11     5 0.0000000276        1.95e- 9       0.288     6
 2  1696          5    16 0.0000347           2.37e- 7       0.977    11
 3  1369         12    30 0.00000000153       2.44e+ 1       0.535    13
 4    64         10     8 0.00000000188       3.20e-10       0.902     3
 5   298         11    36 0.000000425         2.31e+ 0       0.349     1
 6  1453         10    26 0.000238            1.07e- 8       0.404     2
 7   242          3     2 0.000584            4.62e- 1       0.957    11
 8   829         14    38 0.0394              4.64e- 3       0.677    14
 9  1958          2    24 0.00198             2.95e- 2       0.325    15
10  1564         13    21 0.00000000680       3.13e- 1       0.167    16
# ℹ 20 more rows
…
# Stop parallel processing
stopImplicitCluster()

# Play a sound when done
beepr::beep()

# Access metrics
xgb_res$.metrics[[2]]

# A tibble: 60 × 11
    mtry trees min_n tree_depth  learn_rate loss_reduction sample_size .metric
   <int> <int> <int>      <int>       <dbl>          <dbl>       <dbl> <chr>  
 1     4   555    26          1 0.000000210    0.000000397       0.148 rmse   
 2     4   555    26          1 0.000000210    0.000000397       0.148 rsq    
 3    10   350    23          2 0.000147       0.00613           0.221 rmse   
 4    10   350    23          2 0.000147       0.00613           0.221 rsq    
 5    15  1958    24          2 0.00198        0.0295            0.325 rmse   
 6    15  1958    24          2 0.00198        0.0295            0.325 rsq    
 7    11   242     2          3 0.000584       0.462             0.957 rmse   
 8    11   242     2          3 0.000584       0.462             0.957 rsq    
 9    13   916    15          3 0.00000206     0.000858          0.439 rmse   
10    13   916    15          3 0.00000206     0.000858          0.439 rsq    
# ℹ 50 more rows
# ℹ 3 more variables: .estimator <chr>, .estimate <dbl>, .config <chr>
…
Computational engine: xgboost 

6. Final Fit and Predictions

Validation

set.seed(2053)
final_fit = last_fit(final_spec,
                ml_recipe,
                split = ml_split)

final_fit %>%
  collect_predictions()

# A tibble: 2,220 × 5
   .pred id                .row yield_mg_ha .config             
   <dbl> <chr>            <int>       <dbl> <chr>               
 1  3.64 train/test split     2        9.62 Preprocessor1_Model1
 2  3.64 train/test split     7        9.68 Preprocessor1_Model1
 3  3.64 train/test split    13       11.3  Preprocessor1_Model1
 4  3.64 train/test split    23       10.2  Preprocessor1_Model1
 5  3.64 train/test split    26        8.13 Preprocessor1_Model1
 6  3.64 train/test split    27       14.1  Preprocessor1_Model1
 7  3.64 train/test split    29        9.90 Preprocessor1_Model1
 8  3.64 train/test split    30        9.52 Preprocessor1_Model1
 9  3.64 train/test split    31       12.0  Preprocessor1_Model1
10  3.64 train/test split    32       12.9  Preprocessor1_Model1
# ℹ 2,210 more rows
…
normalize numeric predictors

# Build a recipe for the MLP

mlp_recipe = recipe(yield_mg_ha ~ ., 
                    data = train_data_mlp) %>%
  step_zv(all_predictors()) %>%
  step_normalize(all_numeric_predictors())

mlp_recipe %>% 
  prep() %>% 
  juice() %>% 
  select(1:5)

# A tibble: 5,172 × 5
   prcp_mm_day srad_w_m_2 swe_kg_m_2 tmax_deg_c tmin_deg_c
         <dbl>      <dbl>      <dbl>      <dbl>      <dbl>
 1       1.14      -0.528    -0.0431     -0.336    -0.0343
 2       1.14      -0.528    -0.0431     -0.336    -0.0343
 3       1.14      -0.528    -0.0431     -0.336    -0.0343
 4       0.360     -0.463    -0.107      -0.492    -0.259 
 5       0.360     -0.463    -0.107      -0.492    -0.259 
 6       0.360     -0.463    -0.107      -0.492    -0.259 
 7       0.360     -0.463    -0.107      -0.492    -0.259 
 8       0.360     -0.463    -0.107      -0.492    -0.259 
 9       0.360     -0.463    -0.107      -0.492    -0.259 
10       0.360     -0.463    -0.107      -0.492    -0.259 
# ℹ 5,162 more rows
…
#------------------------------------------------------------------------------------------
# 3. Predict on your test set & export
#------------------------------------------------------------------------------------------
xgb_predictions <- predict(fitted_xgb, new_data = final_merged_test) %>%
  bind_cols(final_merged_test %>% select(site)) %>%
  rename(predicted_yield = .pred)

unique(glimpse(xgb_predictions))

Rows: 10,057
Columns: 2
$ predicted_yield <dbl> 2.40376, 2.40376, 2.40376, 2.40376, 2.40376, 2.40376, …
$ site            <chr> "DEH1", "DEH1", "DEH1", "DEH1", "DEH1", "DEH1", "DEH1"…

# A tibble: 23 × 2
   predicted_yield site 
             <dbl> <chr>
 1            2.40 DEH1 
 2            2.50 GAH1 
 3            2.16 GAH2 
 4            2.63 IAH2 
 5            2.63 IAH4 
 6            2.63 ILH1 
 7            2.90 INH1 
 8            2.62 MIH1 
 9            2.88 MNH1 
10            2.49 MOH1 
# ℹ 13 more rows
…
